LINKS TEAMS DISPONÍVEIS:

DAILY COM O PESSOAL QUE TEM O NOTE COM IMAGEM ITAU: https://bit.ly/30vlc6g
https://teams.microsoft.com/l/meetup-join/19%3ameeting_NDU4MzcyMTMtYWNmNC00ODA1LWFhYTYtMGVkOGE2OTFlMGU1%40thread.v2/0?context=%7b%22Tid%22%3a%223048dc87-43f0-4100-9acb-ae1971c79395%22%2c%22Oid%22%3a%2292041257-9221-49e4-86f8-27ff39143e24%22%7d


https://teams.microsoft.com/l/meetup-join/19%3ameeting_YjQ1ZDk2MjYtYTNhMC00MGZlLTg5OGEtZWJkMWIzYWE4YzZm%40thread.v2/0?context=%7b%22Tid%22%3a%223048dc87-43f0-4100-9acb-ae1971c79395%22%2c%22Oid%22%3a%22c543789c-5e58-46c9-b174-4a65750e710b%22%7d
